-- Merging decision tree log ---
manifest
ADDED from /home/roboxo/IntellijFlutter/Laysen Technologies/BitBucket/bluway/android/app/src/main/AndroidManifest.xml:1:1-51:12
INJECTED from /home/roboxo/IntellijFlutter/Laysen Technologies/BitBucket/bluway/android/app/src/main/AndroidManifest.xml:1:1-51:12
INJECTED from /home/roboxo/IntellijFlutter/Laysen Technologies/BitBucket/bluway/android/app/src/main/AndroidManifest.xml:1:1-51:12
INJECTED from /home/roboxo/IntellijFlutter/Laysen Technologies/BitBucket/bluway/android/app/src/main/AndroidManifest.xml:1:1-51:12
MERGED from /home/roboxo/IntellijFlutter/Laysen Technologies/BitBucket/bluway/android/app/src/main/AndroidManifest.xml:1:1-51:12
MERGED from [:image_picker] /home/roboxo/IntellijFlutter/Laysen Technologies/BitBucket/bluway/build/image_picker/intermediates/library_manifest/debug/AndroidManifest.xml:2:1-22:12
MERGED from [:flutter_plugin_android_lifecycle] /home/roboxo/IntellijFlutter/Laysen Technologies/BitBucket/bluway/build/flutter_plugin_android_lifecycle/intermediates/library_manifest/debug/AndroidManifest.xml:2:1-7:12
MERGED from [:shared_preferences] /home/roboxo/IntellijFlutter/Laysen Technologies/BitBucket/bluway/build/shared_preferences/intermediates/library_manifest/debug/AndroidManifest.xml:2:1-7:12
MERGED from [:flutter_keyboard_visibility] /home/roboxo/IntellijFlutter/Laysen Technologies/BitBucket/bluway/build/flutter_keyboard_visibility/intermediates/library_manifest/debug/AndroidManifest.xml:2:1-7:12
MERGED from [:fluttertoast] /home/roboxo/IntellijFlutter/Laysen Technologies/BitBucket/bluway/build/fluttertoast/intermediates/library_manifest/debug/AndroidManifest.xml:2:1-7:12
MERGED from [:path_provider] /home/roboxo/IntellijFlutter/Laysen Technologies/BitBucket/bluway/build/path_provider/intermediates/library_manifest/debug/AndroidManifest.xml:2:1-7:12
MERGED from [:permission_handler] /home/roboxo/IntellijFlutter/Laysen Technologies/BitBucket/bluway/build/permission_handler/intermediates/library_manifest/debug/AndroidManifest.xml:2:1-7:12
MERGED from [:flutter_native_image] /home/roboxo/IntellijFlutter/Laysen Technologies/BitBucket/bluway/build/flutter_native_image/intermediates/library_manifest/debug/AndroidManifest.xml:2:1-7:12
MERGED from [:image_cropper] /home/roboxo/IntellijFlutter/Laysen Technologies/BitBucket/bluway/build/image_cropper/intermediates/library_manifest/debug/AndroidManifest.xml:2:1-7:12
MERGED from [:geolocator] /home/roboxo/IntellijFlutter/Laysen Technologies/BitBucket/bluway/build/geolocator/intermediates/library_manifest/debug/AndroidManifest.xml:2:1-7:12
MERGED from [com.github.yalantis:ucrop:2.2.6] /home/roboxo/.gradle/caches/transforms-2/files-2.1/96c8b63ebe1129065acd632ab7d9b7cf/ucrop-2.2.6/AndroidManifest.xml:2:1-11:12
MERGED from [androidx.appcompat:appcompat:1.1.0] /home/roboxo/.gradle/caches/transforms-2/files-2.1/7def8d6c3751559765cf68c2d5a2dddd/appcompat-1.1.0/AndroidManifest.xml:17:1-24:12
MERGED from [com.google.android.gms:play-services-location:17.0.0] /home/roboxo/.gradle/caches/transforms-2/files-2.1/df3d45654315cc7c4e9333a3fb7b0815/play-services-location-17.0.0/AndroidManifest.xml:2:1-9:12
MERGED from [com.google.android.gms:play-services-base:17.0.0] /home/roboxo/.gradle/caches/transforms-2/files-2.1/5ac9ad6f13ea0190a3570ea7a43d9f59/play-services-base-17.0.0/AndroidManifest.xml:17:1-29:12
MERGED from [com.google.android.gms:play-services-places-placereport:17.0.0] /home/roboxo/.gradle/caches/transforms-2/files-2.1/f1aaa6d621f3c652ee6fe5723a143b22/play-services-places-placereport-17.0.0/AndroidManifest.xml:17:1-24:12
MERGED from [com.google.android.gms:play-services-tasks:17.0.0] /home/roboxo/.gradle/caches/transforms-2/files-2.1/10631bb3012ccad9c5c9285264903a3d/play-services-tasks-17.0.0/AndroidManifest.xml:2:1-9:12
MERGED from [com.google.android.gms:play-services-basement:17.0.0] /home/roboxo/.gradle/caches/transforms-2/files-2.1/5e58f847ce792df52eb6e871bfbdee93/jetified-play-services-basement-17.0.0/AndroidManifest.xml:17:1-28:12
MERGED from [androidx.fragment:fragment:1.1.0] /home/roboxo/.gradle/caches/transforms-2/files-2.1/0986d0d74b8a2c7da8161f6370fc7744/fragment-1.1.0/AndroidManifest.xml:17:1-24:12
MERGED from [androidx.viewpager:viewpager:1.0.0] /home/roboxo/.gradle/caches/transforms-2/files-2.1/28d99d5113324aa067757f8ca41a426f/viewpager-1.0.0/AndroidManifest.xml:17:1-22:12
MERGED from [androidx.loader:loader:1.0.0] /home/roboxo/.gradle/caches/transforms-2/files-2.1/e1bbce6b0d79e8479b70e7bd729bb743/loader-1.0.0/AndroidManifest.xml:17:1-22:12
MERGED from [androidx.activity:activity:1.0.0] /home/roboxo/.gradle/caches/transforms-2/files-2.1/615cab8ad6393a9c868d48761bbea666/activity-1.0.0/AndroidManifest.xml:17:1-24:12
MERGED from [androidx.transition:transition:1.2.0-rc01] /home/roboxo/.gradle/caches/transforms-2/files-2.1/0d0364dd4dfbe053812679d71e9451b7/transition-1.2.0-rc01/AndroidManifest.xml:17:1-24:12
MERGED from [androidx.drawerlayout:drawerlayout:1.0.0] /home/roboxo/.gradle/caches/transforms-2/files-2.1/5bfbe01745d2a29d4e7cd137b17143f4/drawerlayout-1.0.0/AndroidManifest.xml:17:1-22:12
MERGED from [androidx.customview:customview:1.0.0] /home/roboxo/.gradle/caches/transforms-2/files-2.1/ef0bef029ab70f5fb29de019060cf5fd/customview-1.0.0/AndroidManifest.xml:17:1-22:12
MERGED from [androidx.appcompat:appcompat-resources:1.1.0] /home/roboxo/.gradle/caches/transforms-2/files-2.1/60c890b7febb99854cab301d6a2a855b/appcompat-resources-1.1.0/AndroidManifest.xml:17:1-24:12
MERGED from [androidx.vectordrawable:vectordrawable-animated:1.1.0] /home/roboxo/.gradle/caches/transforms-2/files-2.1/2410fdb7000841f3d1c8c67029d91e2f/vectordrawable-animated-1.1.0/AndroidManifest.xml:17:1-24:12
MERGED from [androidx.vectordrawable:vectordrawable:1.1.0] /home/roboxo/.gradle/caches/transforms-2/files-2.1/b1c3739a180dfdcda5d6182680201b94/vectordrawable-1.1.0/AndroidManifest.xml:17:1-24:12
MERGED from [androidx.core:core:1.1.0] /home/roboxo/.gradle/caches/transforms-2/files-2.1/a528b13ac93e64cafa3d0480e2c93207/core-1.1.0/AndroidManifest.xml:17:1-26:12
MERGED from [androidx.lifecycle:lifecycle-runtime:2.2.0] /home/roboxo/.gradle/caches/transforms-2/files-2.1/49ede1f7b9aa322a43288e9745adc2db/lifecycle-runtime-2.2.0/AndroidManifest.xml:17:1-24:12
MERGED from [androidx.savedstate:savedstate:1.0.0] /home/roboxo/.gradle/caches/transforms-2/files-2.1/54d8b8735f730e83f07925f758092af3/savedstate-1.0.0/AndroidManifest.xml:17:1-24:12
MERGED from [androidx.lifecycle:lifecycle-livedata:2.0.0] /home/roboxo/.gradle/caches/transforms-2/files-2.1/23edc849475fdda61367cb003f9b9f93/lifecycle-livedata-2.0.0/AndroidManifest.xml:17:1-22:12
MERGED from [androidx.lifecycle:lifecycle-livedata-core:2.0.0] /home/roboxo/.gradle/caches/transforms-2/files-2.1/79f9d65ef8b1c716310f666473a689a7/lifecycle-livedata-core-2.0.0/AndroidManifest.xml:17:1-22:12
MERGED from [androidx.exifinterface:exifinterface:1.3.0] /home/roboxo/.gradle/caches/transforms-2/files-2.1/ef3e70141ce80265c385477b65c4f7e8/exifinterface-1.3.0/AndroidManifest.xml:17:1-24:12
MERGED from [androidx.arch.core:core-runtime:2.0.0] /home/roboxo/.gradle/caches/transforms-2/files-2.1/077300052aa327ee6fc9bbb0ce309b24/core-runtime-2.0.0/AndroidManifest.xml:17:1-22:12
MERGED from [androidx.versionedparcelable:versionedparcelable:1.1.0] /home/roboxo/.gradle/caches/transforms-2/files-2.1/3a7eb299570065a3866b140e1a95969b/versionedparcelable-1.1.0/AndroidManifest.xml:17:1-27:12
MERGED from [androidx.lifecycle:lifecycle-viewmodel:2.1.0] /home/roboxo/.gradle/caches/transforms-2/files-2.1/b80fad55c42c418cc210e235056767fb/lifecycle-viewmodel-2.1.0/AndroidManifest.xml:17:1-22:12
MERGED from [androidx.cursoradapter:cursoradapter:1.0.0] /home/roboxo/.gradle/caches/transforms-2/files-2.1/fefdd83516e8eeb5097956f9d9af4b04/cursoradapter-1.0.0/AndroidManifest.xml:17:1-22:12
MERGED from [androidx.interpolator:interpolator:1.0.0] /home/roboxo/.gradle/caches/transforms-2/files-2.1/2ca8bc49d3a28fb6fa3bddf429b143ba/interpolator-1.0.0/AndroidManifest.xml:17:1-22:12
INJECTED from /home/roboxo/IntellijFlutter/Laysen Technologies/BitBucket/bluway/android/app/src/debug/AndroidManifest.xml:1:1-7:12
INJECTED from /home/roboxo/IntellijFlutter/Laysen Technologies/BitBucket/bluway/android/app/src/debug/AndroidManifest.xml:1:1-7:12
INJECTED from /home/roboxo/IntellijFlutter/Laysen Technologies/BitBucket/bluway/android/app/src/debug/AndroidManifest.xml:1:1-7:12
	package
		ADDED from /home/roboxo/IntellijFlutter/Laysen Technologies/BitBucket/bluway/android/app/src/main/AndroidManifest.xml:2:5-33
		INJECTED from /home/roboxo/IntellijFlutter/Laysen Technologies/BitBucket/bluway/android/app/src/main/AndroidManifest.xml
		INJECTED from /home/roboxo/IntellijFlutter/Laysen Technologies/BitBucket/bluway/android/app/src/debug/AndroidManifest.xml
	android:versionName
		INJECTED from /home/roboxo/IntellijFlutter/Laysen Technologies/BitBucket/bluway/android/app/src/main/AndroidManifest.xml
		ADDED from /home/roboxo/IntellijFlutter/Laysen Technologies/BitBucket/bluway/android/app/src/main/AndroidManifest.xml:1:1-51:12
		INJECTED from /home/roboxo/IntellijFlutter/Laysen Technologies/BitBucket/bluway/android/app/src/debug/AndroidManifest.xml
	android:versionCode
		INJECTED from /home/roboxo/IntellijFlutter/Laysen Technologies/BitBucket/bluway/android/app/src/main/AndroidManifest.xml
		ADDED from /home/roboxo/IntellijFlutter/Laysen Technologies/BitBucket/bluway/android/app/src/main/AndroidManifest.xml:1:1-51:12
		INJECTED from /home/roboxo/IntellijFlutter/Laysen Technologies/BitBucket/bluway/android/app/src/debug/AndroidManifest.xml
	xmlns:android
		ADDED from /home/roboxo/IntellijFlutter/Laysen Technologies/BitBucket/bluway/android/app/src/main/AndroidManifest.xml:1:11-69
uses-permission#android.permission.ACCESS_COARSE_LOCATION
ADDED from /home/roboxo/IntellijFlutter/Laysen Technologies/BitBucket/bluway/android/app/src/main/AndroidManifest.xml:3:5-81
	android:name
		ADDED from /home/roboxo/IntellijFlutter/Laysen Technologies/BitBucket/bluway/android/app/src/main/AndroidManifest.xml:3:22-78
uses-permission#android.permission.ACCESS_FINE_LOCATION
ADDED from /home/roboxo/IntellijFlutter/Laysen Technologies/BitBucket/bluway/android/app/src/main/AndroidManifest.xml:4:5-79
	android:name
		ADDED from /home/roboxo/IntellijFlutter/Laysen Technologies/BitBucket/bluway/android/app/src/main/AndroidManifest.xml:4:22-76
uses-permission#android.permission.INTERNET
ADDED from /home/roboxo/IntellijFlutter/Laysen Technologies/BitBucket/bluway/android/app/src/main/AndroidManifest.xml:5:5-66
MERGED from /home/roboxo/IntellijFlutter/Laysen Technologies/BitBucket/bluway/android/app/src/main/AndroidManifest.xml:5:5-66
MERGED from /home/roboxo/IntellijFlutter/Laysen Technologies/BitBucket/bluway/android/app/src/main/AndroidManifest.xml:5:5-66
	android:name
		ADDED from /home/roboxo/IntellijFlutter/Laysen Technologies/BitBucket/bluway/android/app/src/main/AndroidManifest.xml:5:22-64
application
ADDED from /home/roboxo/IntellijFlutter/Laysen Technologies/BitBucket/bluway/android/app/src/main/AndroidManifest.xml:6:4-50:19
MERGED from [:image_picker] /home/roboxo/IntellijFlutter/Laysen Technologies/BitBucket/bluway/build/image_picker/intermediates/library_manifest/debug/AndroidManifest.xml:10:5-20:19
MERGED from [:image_picker] /home/roboxo/IntellijFlutter/Laysen Technologies/BitBucket/bluway/build/image_picker/intermediates/library_manifest/debug/AndroidManifest.xml:10:5-20:19
MERGED from [com.google.android.gms:play-services-location:17.0.0] /home/roboxo/.gradle/caches/transforms-2/files-2.1/df3d45654315cc7c4e9333a3fb7b0815/play-services-location-17.0.0/AndroidManifest.xml:7:5-20
MERGED from [com.google.android.gms:play-services-location:17.0.0] /home/roboxo/.gradle/caches/transforms-2/files-2.1/df3d45654315cc7c4e9333a3fb7b0815/play-services-location-17.0.0/AndroidManifest.xml:7:5-20
MERGED from [com.google.android.gms:play-services-base:17.0.0] /home/roboxo/.gradle/caches/transforms-2/files-2.1/5ac9ad6f13ea0190a3570ea7a43d9f59/play-services-base-17.0.0/AndroidManifest.xml:22:5-27:19
MERGED from [com.google.android.gms:play-services-base:17.0.0] /home/roboxo/.gradle/caches/transforms-2/files-2.1/5ac9ad6f13ea0190a3570ea7a43d9f59/play-services-base-17.0.0/AndroidManifest.xml:22:5-27:19
MERGED from [com.google.android.gms:play-services-places-placereport:17.0.0] /home/roboxo/.gradle/caches/transforms-2/files-2.1/f1aaa6d621f3c652ee6fe5723a143b22/play-services-places-placereport-17.0.0/AndroidManifest.xml:22:5-20
MERGED from [com.google.android.gms:play-services-places-placereport:17.0.0] /home/roboxo/.gradle/caches/transforms-2/files-2.1/f1aaa6d621f3c652ee6fe5723a143b22/play-services-places-placereport-17.0.0/AndroidManifest.xml:22:5-20
MERGED from [com.google.android.gms:play-services-tasks:17.0.0] /home/roboxo/.gradle/caches/transforms-2/files-2.1/10631bb3012ccad9c5c9285264903a3d/play-services-tasks-17.0.0/AndroidManifest.xml:7:5-20
MERGED from [com.google.android.gms:play-services-tasks:17.0.0] /home/roboxo/.gradle/caches/transforms-2/files-2.1/10631bb3012ccad9c5c9285264903a3d/play-services-tasks-17.0.0/AndroidManifest.xml:7:5-20
MERGED from [com.google.android.gms:play-services-basement:17.0.0] /home/roboxo/.gradle/caches/transforms-2/files-2.1/5e58f847ce792df52eb6e871bfbdee93/jetified-play-services-basement-17.0.0/AndroidManifest.xml:22:5-26:19
MERGED from [com.google.android.gms:play-services-basement:17.0.0] /home/roboxo/.gradle/caches/transforms-2/files-2.1/5e58f847ce792df52eb6e871bfbdee93/jetified-play-services-basement-17.0.0/AndroidManifest.xml:22:5-26:19
MERGED from [androidx.core:core:1.1.0] /home/roboxo/.gradle/caches/transforms-2/files-2.1/a528b13ac93e64cafa3d0480e2c93207/core-1.1.0/AndroidManifest.xml:24:5-89
MERGED from [androidx.core:core:1.1.0] /home/roboxo/.gradle/caches/transforms-2/files-2.1/a528b13ac93e64cafa3d0480e2c93207/core-1.1.0/AndroidManifest.xml:24:5-89
MERGED from [androidx.versionedparcelable:versionedparcelable:1.1.0] /home/roboxo/.gradle/caches/transforms-2/files-2.1/3a7eb299570065a3866b140e1a95969b/versionedparcelable-1.1.0/AndroidManifest.xml:24:5-25:19
MERGED from [androidx.versionedparcelable:versionedparcelable:1.1.0] /home/roboxo/.gradle/caches/transforms-2/files-2.1/3a7eb299570065a3866b140e1a95969b/versionedparcelable-1.1.0/AndroidManifest.xml:24:5-25:19
	android:appComponentFactory
		ADDED from [androidx.core:core:1.1.0] /home/roboxo/.gradle/caches/transforms-2/files-2.1/a528b13ac93e64cafa3d0480e2c93207/core-1.1.0/AndroidManifest.xml:24:18-86
	android:label
		ADDED from /home/roboxo/IntellijFlutter/Laysen Technologies/BitBucket/bluway/android/app/src/main/AndroidManifest.xml:7:9-32
	android:icon
		ADDED from /home/roboxo/IntellijFlutter/Laysen Technologies/BitBucket/bluway/android/app/src/main/AndroidManifest.xml:9:9-43
	android:usesCleartextTraffic
		ADDED from /home/roboxo/IntellijFlutter/Laysen Technologies/BitBucket/bluway/android/app/src/main/AndroidManifest.xml:8:9-44
meta-data#com.google.android.geo.API_KEY
ADDED from /home/roboxo/IntellijFlutter/Laysen Technologies/BitBucket/bluway/android/app/src/main/AndroidManifest.xml:10:9-11:73
	android:value
		ADDED from /home/roboxo/IntellijFlutter/Laysen Technologies/BitBucket/bluway/android/app/src/main/AndroidManifest.xml:11:16-71
	android:name
		ADDED from /home/roboxo/IntellijFlutter/Laysen Technologies/BitBucket/bluway/android/app/src/main/AndroidManifest.xml:10:20-65
activity#com.bluway.blu_way.MainActivity
ADDED from /home/roboxo/IntellijFlutter/Laysen Technologies/BitBucket/bluway/android/app/src/main/AndroidManifest.xml:12:9-40:20
	android:launchMode
		ADDED from /home/roboxo/IntellijFlutter/Laysen Technologies/BitBucket/bluway/android/app/src/main/AndroidManifest.xml:14:13-43
	android:hardwareAccelerated
		ADDED from /home/roboxo/IntellijFlutter/Laysen Technologies/BitBucket/bluway/android/app/src/main/AndroidManifest.xml:17:13-47
	android:windowSoftInputMode
		ADDED from /home/roboxo/IntellijFlutter/Laysen Technologies/BitBucket/bluway/android/app/src/main/AndroidManifest.xml:18:13-55
	android:configChanges
		ADDED from /home/roboxo/IntellijFlutter/Laysen Technologies/BitBucket/bluway/android/app/src/main/AndroidManifest.xml:16:13-163
	android:theme
		ADDED from /home/roboxo/IntellijFlutter/Laysen Technologies/BitBucket/bluway/android/app/src/main/AndroidManifest.xml:15:13-47
	android:name
		ADDED from /home/roboxo/IntellijFlutter/Laysen Technologies/BitBucket/bluway/android/app/src/main/AndroidManifest.xml:13:13-41
meta-data#io.flutter.embedding.android.NormalTheme
ADDED from /home/roboxo/IntellijFlutter/Laysen Technologies/BitBucket/bluway/android/app/src/main/AndroidManifest.xml:23:13-26:17
	android:resource
		ADDED from /home/roboxo/IntellijFlutter/Laysen Technologies/BitBucket/bluway/android/app/src/main/AndroidManifest.xml:25:15-52
	android:name
		ADDED from /home/roboxo/IntellijFlutter/Laysen Technologies/BitBucket/bluway/android/app/src/main/AndroidManifest.xml:24:15-70
meta-data#io.flutter.embedding.android.SplashScreenDrawable
ADDED from /home/roboxo/IntellijFlutter/Laysen Technologies/BitBucket/bluway/android/app/src/main/AndroidManifest.xml:32:13-35:17
	android:resource
		ADDED from /home/roboxo/IntellijFlutter/Laysen Technologies/BitBucket/bluway/android/app/src/main/AndroidManifest.xml:34:15-61
	android:name
		ADDED from /home/roboxo/IntellijFlutter/Laysen Technologies/BitBucket/bluway/android/app/src/main/AndroidManifest.xml:33:15-79
intent-filter#action:name:android.intent.action.MAIN+category:name:android.intent.category.LAUNCHER
ADDED from /home/roboxo/IntellijFlutter/Laysen Technologies/BitBucket/bluway/android/app/src/main/AndroidManifest.xml:36:13-39:29
action#android.intent.action.MAIN
ADDED from /home/roboxo/IntellijFlutter/Laysen Technologies/BitBucket/bluway/android/app/src/main/AndroidManifest.xml:37:17-68
	android:name
		ADDED from /home/roboxo/IntellijFlutter/Laysen Technologies/BitBucket/bluway/android/app/src/main/AndroidManifest.xml:37:25-66
category#android.intent.category.LAUNCHER
ADDED from /home/roboxo/IntellijFlutter/Laysen Technologies/BitBucket/bluway/android/app/src/main/AndroidManifest.xml:38:17-76
	android:name
		ADDED from /home/roboxo/IntellijFlutter/Laysen Technologies/BitBucket/bluway/android/app/src/main/AndroidManifest.xml:38:27-74
activity#com.yalantis.ucrop.UCropActivity
ADDED from /home/roboxo/IntellijFlutter/Laysen Technologies/BitBucket/bluway/android/app/src/main/AndroidManifest.xml:43:10-46:63
	android:screenOrientation
		ADDED from /home/roboxo/IntellijFlutter/Laysen Technologies/BitBucket/bluway/android/app/src/main/AndroidManifest.xml:45:5-41
	android:theme
		ADDED from /home/roboxo/IntellijFlutter/Laysen Technologies/BitBucket/bluway/android/app/src/main/AndroidManifest.xml:46:5-61
	android:name
		ADDED from /home/roboxo/IntellijFlutter/Laysen Technologies/BitBucket/bluway/android/app/src/main/AndroidManifest.xml:44:5-52
meta-data#flutterEmbedding
ADDED from /home/roboxo/IntellijFlutter/Laysen Technologies/BitBucket/bluway/android/app/src/main/AndroidManifest.xml:47:9-49:33
	android:value
		ADDED from /home/roboxo/IntellijFlutter/Laysen Technologies/BitBucket/bluway/android/app/src/main/AndroidManifest.xml:49:13-30
	android:name
		ADDED from /home/roboxo/IntellijFlutter/Laysen Technologies/BitBucket/bluway/android/app/src/main/AndroidManifest.xml:48:13-44
uses-sdk
INJECTED from /home/roboxo/IntellijFlutter/Laysen Technologies/BitBucket/bluway/android/app/src/main/AndroidManifest.xml reason: use-sdk injection requested
INJECTED from /home/roboxo/IntellijFlutter/Laysen Technologies/BitBucket/bluway/android/app/src/main/AndroidManifest.xml
INJECTED from /home/roboxo/IntellijFlutter/Laysen Technologies/BitBucket/bluway/android/app/src/main/AndroidManifest.xml
MERGED from [:image_picker] /home/roboxo/IntellijFlutter/Laysen Technologies/BitBucket/bluway/build/image_picker/intermediates/library_manifest/debug/AndroidManifest.xml:5:5-44
MERGED from [:image_picker] /home/roboxo/IntellijFlutter/Laysen Technologies/BitBucket/bluway/build/image_picker/intermediates/library_manifest/debug/AndroidManifest.xml:5:5-44
MERGED from [:flutter_plugin_android_lifecycle] /home/roboxo/IntellijFlutter/Laysen Technologies/BitBucket/bluway/build/flutter_plugin_android_lifecycle/intermediates/library_manifest/debug/AndroidManifest.xml:5:5-44
MERGED from [:flutter_plugin_android_lifecycle] /home/roboxo/IntellijFlutter/Laysen Technologies/BitBucket/bluway/build/flutter_plugin_android_lifecycle/intermediates/library_manifest/debug/AndroidManifest.xml:5:5-44
MERGED from [:shared_preferences] /home/roboxo/IntellijFlutter/Laysen Technologies/BitBucket/bluway/build/shared_preferences/intermediates/library_manifest/debug/AndroidManifest.xml:5:5-44
MERGED from [:shared_preferences] /home/roboxo/IntellijFlutter/Laysen Technologies/BitBucket/bluway/build/shared_preferences/intermediates/library_manifest/debug/AndroidManifest.xml:5:5-44
MERGED from [:flutter_keyboard_visibility] /home/roboxo/IntellijFlutter/Laysen Technologies/BitBucket/bluway/build/flutter_keyboard_visibility/intermediates/library_manifest/debug/AndroidManifest.xml:5:5-44
MERGED from [:flutter_keyboard_visibility] /home/roboxo/IntellijFlutter/Laysen Technologies/BitBucket/bluway/build/flutter_keyboard_visibility/intermediates/library_manifest/debug/AndroidManifest.xml:5:5-44
MERGED from [:fluttertoast] /home/roboxo/IntellijFlutter/Laysen Technologies/BitBucket/bluway/build/fluttertoast/intermediates/library_manifest/debug/AndroidManifest.xml:5:5-44
MERGED from [:fluttertoast] /home/roboxo/IntellijFlutter/Laysen Technologies/BitBucket/bluway/build/fluttertoast/intermediates/library_manifest/debug/AndroidManifest.xml:5:5-44
MERGED from [:path_provider] /home/roboxo/IntellijFlutter/Laysen Technologies/BitBucket/bluway/build/path_provider/intermediates/library_manifest/debug/AndroidManifest.xml:5:5-44
MERGED from [:path_provider] /home/roboxo/IntellijFlutter/Laysen Technologies/BitBucket/bluway/build/path_provider/intermediates/library_manifest/debug/AndroidManifest.xml:5:5-44
MERGED from [:permission_handler] /home/roboxo/IntellijFlutter/Laysen Technologies/BitBucket/bluway/build/permission_handler/intermediates/library_manifest/debug/AndroidManifest.xml:5:5-44
MERGED from [:permission_handler] /home/roboxo/IntellijFlutter/Laysen Technologies/BitBucket/bluway/build/permission_handler/intermediates/library_manifest/debug/AndroidManifest.xml:5:5-44
MERGED from [:flutter_native_image] /home/roboxo/IntellijFlutter/Laysen Technologies/BitBucket/bluway/build/flutter_native_image/intermediates/library_manifest/debug/AndroidManifest.xml:5:5-44
MERGED from [:flutter_native_image] /home/roboxo/IntellijFlutter/Laysen Technologies/BitBucket/bluway/build/flutter_native_image/intermediates/library_manifest/debug/AndroidManifest.xml:5:5-44
MERGED from [:image_cropper] /home/roboxo/IntellijFlutter/Laysen Technologies/BitBucket/bluway/build/image_cropper/intermediates/library_manifest/debug/AndroidManifest.xml:5:5-44
MERGED from [:image_cropper] /home/roboxo/IntellijFlutter/Laysen Technologies/BitBucket/bluway/build/image_cropper/intermediates/library_manifest/debug/AndroidManifest.xml:5:5-44
MERGED from [:geolocator] /home/roboxo/IntellijFlutter/Laysen Technologies/BitBucket/bluway/build/geolocator/intermediates/library_manifest/debug/AndroidManifest.xml:5:5-44
MERGED from [:geolocator] /home/roboxo/IntellijFlutter/Laysen Technologies/BitBucket/bluway/build/geolocator/intermediates/library_manifest/debug/AndroidManifest.xml:5:5-44
MERGED from [com.github.yalantis:ucrop:2.2.6] /home/roboxo/.gradle/caches/transforms-2/files-2.1/96c8b63ebe1129065acd632ab7d9b7cf/ucrop-2.2.6/AndroidManifest.xml:7:5-9:41
MERGED from [com.github.yalantis:ucrop:2.2.6] /home/roboxo/.gradle/caches/transforms-2/files-2.1/96c8b63ebe1129065acd632ab7d9b7cf/ucrop-2.2.6/AndroidManifest.xml:7:5-9:41
MERGED from [androidx.appcompat:appcompat:1.1.0] /home/roboxo/.gradle/caches/transforms-2/files-2.1/7def8d6c3751559765cf68c2d5a2dddd/appcompat-1.1.0/AndroidManifest.xml:20:5-22:41
MERGED from [androidx.appcompat:appcompat:1.1.0] /home/roboxo/.gradle/caches/transforms-2/files-2.1/7def8d6c3751559765cf68c2d5a2dddd/appcompat-1.1.0/AndroidManifest.xml:20:5-22:41
MERGED from [com.google.android.gms:play-services-location:17.0.0] /home/roboxo/.gradle/caches/transforms-2/files-2.1/df3d45654315cc7c4e9333a3fb7b0815/play-services-location-17.0.0/AndroidManifest.xml:5:5-44
MERGED from [com.google.android.gms:play-services-location:17.0.0] /home/roboxo/.gradle/caches/transforms-2/files-2.1/df3d45654315cc7c4e9333a3fb7b0815/play-services-location-17.0.0/AndroidManifest.xml:5:5-44
MERGED from [com.google.android.gms:play-services-base:17.0.0] /home/roboxo/.gradle/caches/transforms-2/files-2.1/5ac9ad6f13ea0190a3570ea7a43d9f59/play-services-base-17.0.0/AndroidManifest.xml:20:5-44
MERGED from [com.google.android.gms:play-services-base:17.0.0] /home/roboxo/.gradle/caches/transforms-2/files-2.1/5ac9ad6f13ea0190a3570ea7a43d9f59/play-services-base-17.0.0/AndroidManifest.xml:20:5-44
MERGED from [com.google.android.gms:play-services-places-placereport:17.0.0] /home/roboxo/.gradle/caches/transforms-2/files-2.1/f1aaa6d621f3c652ee6fe5723a143b22/play-services-places-placereport-17.0.0/AndroidManifest.xml:20:5-44
MERGED from [com.google.android.gms:play-services-places-placereport:17.0.0] /home/roboxo/.gradle/caches/transforms-2/files-2.1/f1aaa6d621f3c652ee6fe5723a143b22/play-services-places-placereport-17.0.0/AndroidManifest.xml:20:5-44
MERGED from [com.google.android.gms:play-services-tasks:17.0.0] /home/roboxo/.gradle/caches/transforms-2/files-2.1/10631bb3012ccad9c5c9285264903a3d/play-services-tasks-17.0.0/AndroidManifest.xml:5:5-44
MERGED from [com.google.android.gms:play-services-tasks:17.0.0] /home/roboxo/.gradle/caches/transforms-2/files-2.1/10631bb3012ccad9c5c9285264903a3d/play-services-tasks-17.0.0/AndroidManifest.xml:5:5-44
MERGED from [com.google.android.gms:play-services-basement:17.0.0] /home/roboxo/.gradle/caches/transforms-2/files-2.1/5e58f847ce792df52eb6e871bfbdee93/jetified-play-services-basement-17.0.0/AndroidManifest.xml:20:5-44
MERGED from [com.google.android.gms:play-services-basement:17.0.0] /home/roboxo/.gradle/caches/transforms-2/files-2.1/5e58f847ce792df52eb6e871bfbdee93/jetified-play-services-basement-17.0.0/AndroidManifest.xml:20:5-44
MERGED from [androidx.fragment:fragment:1.1.0] /home/roboxo/.gradle/caches/transforms-2/files-2.1/0986d0d74b8a2c7da8161f6370fc7744/fragment-1.1.0/AndroidManifest.xml:20:5-22:41
MERGED from [androidx.fragment:fragment:1.1.0] /home/roboxo/.gradle/caches/transforms-2/files-2.1/0986d0d74b8a2c7da8161f6370fc7744/fragment-1.1.0/AndroidManifest.xml:20:5-22:41
MERGED from [androidx.viewpager:viewpager:1.0.0] /home/roboxo/.gradle/caches/transforms-2/files-2.1/28d99d5113324aa067757f8ca41a426f/viewpager-1.0.0/AndroidManifest.xml:20:5-44
MERGED from [androidx.viewpager:viewpager:1.0.0] /home/roboxo/.gradle/caches/transforms-2/files-2.1/28d99d5113324aa067757f8ca41a426f/viewpager-1.0.0/AndroidManifest.xml:20:5-44
MERGED from [androidx.loader:loader:1.0.0] /home/roboxo/.gradle/caches/transforms-2/files-2.1/e1bbce6b0d79e8479b70e7bd729bb743/loader-1.0.0/AndroidManifest.xml:20:5-44
MERGED from [androidx.loader:loader:1.0.0] /home/roboxo/.gradle/caches/transforms-2/files-2.1/e1bbce6b0d79e8479b70e7bd729bb743/loader-1.0.0/AndroidManifest.xml:20:5-44
MERGED from [androidx.activity:activity:1.0.0] /home/roboxo/.gradle/caches/transforms-2/files-2.1/615cab8ad6393a9c868d48761bbea666/activity-1.0.0/AndroidManifest.xml:20:5-22:41
MERGED from [androidx.activity:activity:1.0.0] /home/roboxo/.gradle/caches/transforms-2/files-2.1/615cab8ad6393a9c868d48761bbea666/activity-1.0.0/AndroidManifest.xml:20:5-22:41
MERGED from [androidx.transition:transition:1.2.0-rc01] /home/roboxo/.gradle/caches/transforms-2/files-2.1/0d0364dd4dfbe053812679d71e9451b7/transition-1.2.0-rc01/AndroidManifest.xml:20:5-22:41
MERGED from [androidx.transition:transition:1.2.0-rc01] /home/roboxo/.gradle/caches/transforms-2/files-2.1/0d0364dd4dfbe053812679d71e9451b7/transition-1.2.0-rc01/AndroidManifest.xml:20:5-22:41
MERGED from [androidx.drawerlayout:drawerlayout:1.0.0] /home/roboxo/.gradle/caches/transforms-2/files-2.1/5bfbe01745d2a29d4e7cd137b17143f4/drawerlayout-1.0.0/AndroidManifest.xml:20:5-44
MERGED from [androidx.drawerlayout:drawerlayout:1.0.0] /home/roboxo/.gradle/caches/transforms-2/files-2.1/5bfbe01745d2a29d4e7cd137b17143f4/drawerlayout-1.0.0/AndroidManifest.xml:20:5-44
MERGED from [androidx.customview:customview:1.0.0] /home/roboxo/.gradle/caches/transforms-2/files-2.1/ef0bef029ab70f5fb29de019060cf5fd/customview-1.0.0/AndroidManifest.xml:20:5-44
MERGED from [androidx.customview:customview:1.0.0] /home/roboxo/.gradle/caches/transforms-2/files-2.1/ef0bef029ab70f5fb29de019060cf5fd/customview-1.0.0/AndroidManifest.xml:20:5-44
MERGED from [androidx.appcompat:appcompat-resources:1.1.0] /home/roboxo/.gradle/caches/transforms-2/files-2.1/60c890b7febb99854cab301d6a2a855b/appcompat-resources-1.1.0/AndroidManifest.xml:20:5-22:41
MERGED from [androidx.appcompat:appcompat-resources:1.1.0] /home/roboxo/.gradle/caches/transforms-2/files-2.1/60c890b7febb99854cab301d6a2a855b/appcompat-resources-1.1.0/AndroidManifest.xml:20:5-22:41
MERGED from [androidx.vectordrawable:vectordrawable-animated:1.1.0] /home/roboxo/.gradle/caches/transforms-2/files-2.1/2410fdb7000841f3d1c8c67029d91e2f/vectordrawable-animated-1.1.0/AndroidManifest.xml:20:5-22:41
MERGED from [androidx.vectordrawable:vectordrawable-animated:1.1.0] /home/roboxo/.gradle/caches/transforms-2/files-2.1/2410fdb7000841f3d1c8c67029d91e2f/vectordrawable-animated-1.1.0/AndroidManifest.xml:20:5-22:41
MERGED from [androidx.vectordrawable:vectordrawable:1.1.0] /home/roboxo/.gradle/caches/transforms-2/files-2.1/b1c3739a180dfdcda5d6182680201b94/vectordrawable-1.1.0/AndroidManifest.xml:20:5-22:41
MERGED from [androidx.vectordrawable:vectordrawable:1.1.0] /home/roboxo/.gradle/caches/transforms-2/files-2.1/b1c3739a180dfdcda5d6182680201b94/vectordrawable-1.1.0/AndroidManifest.xml:20:5-22:41
MERGED from [androidx.core:core:1.1.0] /home/roboxo/.gradle/caches/transforms-2/files-2.1/a528b13ac93e64cafa3d0480e2c93207/core-1.1.0/AndroidManifest.xml:20:5-22:41
MERGED from [androidx.core:core:1.1.0] /home/roboxo/.gradle/caches/transforms-2/files-2.1/a528b13ac93e64cafa3d0480e2c93207/core-1.1.0/AndroidManifest.xml:20:5-22:41
MERGED from [androidx.lifecycle:lifecycle-runtime:2.2.0] /home/roboxo/.gradle/caches/transforms-2/files-2.1/49ede1f7b9aa322a43288e9745adc2db/lifecycle-runtime-2.2.0/AndroidManifest.xml:20:5-22:41
MERGED from [androidx.lifecycle:lifecycle-runtime:2.2.0] /home/roboxo/.gradle/caches/transforms-2/files-2.1/49ede1f7b9aa322a43288e9745adc2db/lifecycle-runtime-2.2.0/AndroidManifest.xml:20:5-22:41
MERGED from [androidx.savedstate:savedstate:1.0.0] /home/roboxo/.gradle/caches/transforms-2/files-2.1/54d8b8735f730e83f07925f758092af3/savedstate-1.0.0/AndroidManifest.xml:20:5-22:41
MERGED from [androidx.savedstate:savedstate:1.0.0] /home/roboxo/.gradle/caches/transforms-2/files-2.1/54d8b8735f730e83f07925f758092af3/savedstate-1.0.0/AndroidManifest.xml:20:5-22:41
MERGED from [androidx.lifecycle:lifecycle-livedata:2.0.0] /home/roboxo/.gradle/caches/transforms-2/files-2.1/23edc849475fdda61367cb003f9b9f93/lifecycle-livedata-2.0.0/AndroidManifest.xml:20:5-44
MERGED from [androidx.lifecycle:lifecycle-livedata:2.0.0] /home/roboxo/.gradle/caches/transforms-2/files-2.1/23edc849475fdda61367cb003f9b9f93/lifecycle-livedata-2.0.0/AndroidManifest.xml:20:5-44
MERGED from [androidx.lifecycle:lifecycle-livedata-core:2.0.0] /home/roboxo/.gradle/caches/transforms-2/files-2.1/79f9d65ef8b1c716310f666473a689a7/lifecycle-livedata-core-2.0.0/AndroidManifest.xml:20:5-44
MERGED from [androidx.lifecycle:lifecycle-livedata-core:2.0.0] /home/roboxo/.gradle/caches/transforms-2/files-2.1/79f9d65ef8b1c716310f666473a689a7/lifecycle-livedata-core-2.0.0/AndroidManifest.xml:20:5-44
MERGED from [androidx.exifinterface:exifinterface:1.3.0] /home/roboxo/.gradle/caches/transforms-2/files-2.1/ef3e70141ce80265c385477b65c4f7e8/exifinterface-1.3.0/AndroidManifest.xml:20:5-22:41
MERGED from [androidx.exifinterface:exifinterface:1.3.0] /home/roboxo/.gradle/caches/transforms-2/files-2.1/ef3e70141ce80265c385477b65c4f7e8/exifinterface-1.3.0/AndroidManifest.xml:20:5-22:41
MERGED from [androidx.arch.core:core-runtime:2.0.0] /home/roboxo/.gradle/caches/transforms-2/files-2.1/077300052aa327ee6fc9bbb0ce309b24/core-runtime-2.0.0/AndroidManifest.xml:20:5-44
MERGED from [androidx.arch.core:core-runtime:2.0.0] /home/roboxo/.gradle/caches/transforms-2/files-2.1/077300052aa327ee6fc9bbb0ce309b24/core-runtime-2.0.0/AndroidManifest.xml:20:5-44
MERGED from [androidx.versionedparcelable:versionedparcelable:1.1.0] /home/roboxo/.gradle/caches/transforms-2/files-2.1/3a7eb299570065a3866b140e1a95969b/versionedparcelable-1.1.0/AndroidManifest.xml:20:5-22:41
MERGED from [androidx.versionedparcelable:versionedparcelable:1.1.0] /home/roboxo/.gradle/caches/transforms-2/files-2.1/3a7eb299570065a3866b140e1a95969b/versionedparcelable-1.1.0/AndroidManifest.xml:20:5-22:41
MERGED from [androidx.lifecycle:lifecycle-viewmodel:2.1.0] /home/roboxo/.gradle/caches/transforms-2/files-2.1/b80fad55c42c418cc210e235056767fb/lifecycle-viewmodel-2.1.0/AndroidManifest.xml:20:5-44
MERGED from [androidx.lifecycle:lifecycle-viewmodel:2.1.0] /home/roboxo/.gradle/caches/transforms-2/files-2.1/b80fad55c42c418cc210e235056767fb/lifecycle-viewmodel-2.1.0/AndroidManifest.xml:20:5-44
MERGED from [androidx.cursoradapter:cursoradapter:1.0.0] /home/roboxo/.gradle/caches/transforms-2/files-2.1/fefdd83516e8eeb5097956f9d9af4b04/cursoradapter-1.0.0/AndroidManifest.xml:20:5-44
MERGED from [androidx.cursoradapter:cursoradapter:1.0.0] /home/roboxo/.gradle/caches/transforms-2/files-2.1/fefdd83516e8eeb5097956f9d9af4b04/cursoradapter-1.0.0/AndroidManifest.xml:20:5-44
MERGED from [androidx.interpolator:interpolator:1.0.0] /home/roboxo/.gradle/caches/transforms-2/files-2.1/2ca8bc49d3a28fb6fa3bddf429b143ba/interpolator-1.0.0/AndroidManifest.xml:20:5-44
MERGED from [androidx.interpolator:interpolator:1.0.0] /home/roboxo/.gradle/caches/transforms-2/files-2.1/2ca8bc49d3a28fb6fa3bddf429b143ba/interpolator-1.0.0/AndroidManifest.xml:20:5-44
INJECTED from /home/roboxo/IntellijFlutter/Laysen Technologies/BitBucket/bluway/android/app/src/debug/AndroidManifest.xml
INJECTED from /home/roboxo/IntellijFlutter/Laysen Technologies/BitBucket/bluway/android/app/src/debug/AndroidManifest.xml
	android:targetSdkVersion
		INJECTED from /home/roboxo/IntellijFlutter/Laysen Technologies/BitBucket/bluway/android/app/src/main/AndroidManifest.xml
		INJECTED from /home/roboxo/IntellijFlutter/Laysen Technologies/BitBucket/bluway/android/app/src/debug/AndroidManifest.xml
	android:minSdkVersion
		INJECTED from /home/roboxo/IntellijFlutter/Laysen Technologies/BitBucket/bluway/android/app/src/main/AndroidManifest.xml
		INJECTED from /home/roboxo/IntellijFlutter/Laysen Technologies/BitBucket/bluway/android/app/src/debug/AndroidManifest.xml
uses-permission#android.permission.READ_EXTERNAL_STORAGE
ADDED from [:image_picker] /home/roboxo/IntellijFlutter/Laysen Technologies/BitBucket/bluway/build/image_picker/intermediates/library_manifest/debug/AndroidManifest.xml:7:5-80
	android:name
		ADDED from [:image_picker] /home/roboxo/IntellijFlutter/Laysen Technologies/BitBucket/bluway/build/image_picker/intermediates/library_manifest/debug/AndroidManifest.xml:7:22-77
uses-permission#android.permission.WRITE_EXTERNAL_STORAGE
ADDED from [:image_picker] /home/roboxo/IntellijFlutter/Laysen Technologies/BitBucket/bluway/build/image_picker/intermediates/library_manifest/debug/AndroidManifest.xml:8:5-81
	android:name
		ADDED from [:image_picker] /home/roboxo/IntellijFlutter/Laysen Technologies/BitBucket/bluway/build/image_picker/intermediates/library_manifest/debug/AndroidManifest.xml:8:22-78
provider#io.flutter.plugins.imagepicker.ImagePickerFileProvider
ADDED from [:image_picker] /home/roboxo/IntellijFlutter/Laysen Technologies/BitBucket/bluway/build/image_picker/intermediates/library_manifest/debug/AndroidManifest.xml:11:9-19:20
	android:grantUriPermissions
		ADDED from [:image_picker] /home/roboxo/IntellijFlutter/Laysen Technologies/BitBucket/bluway/build/image_picker/intermediates/library_manifest/debug/AndroidManifest.xml:15:13-47
	android:authorities
		ADDED from [:image_picker] /home/roboxo/IntellijFlutter/Laysen Technologies/BitBucket/bluway/build/image_picker/intermediates/library_manifest/debug/AndroidManifest.xml:13:13-74
	android:exported
		ADDED from [:image_picker] /home/roboxo/IntellijFlutter/Laysen Technologies/BitBucket/bluway/build/image_picker/intermediates/library_manifest/debug/AndroidManifest.xml:14:13-37
	android:name
		ADDED from [:image_picker] /home/roboxo/IntellijFlutter/Laysen Technologies/BitBucket/bluway/build/image_picker/intermediates/library_manifest/debug/AndroidManifest.xml:12:13-82
meta-data#android.support.FILE_PROVIDER_PATHS
ADDED from [:image_picker] /home/roboxo/IntellijFlutter/Laysen Technologies/BitBucket/bluway/build/image_picker/intermediates/library_manifest/debug/AndroidManifest.xml:16:13-18:75
	android:resource
		ADDED from [:image_picker] /home/roboxo/IntellijFlutter/Laysen Technologies/BitBucket/bluway/build/image_picker/intermediates/library_manifest/debug/AndroidManifest.xml:18:17-72
	android:name
		ADDED from [:image_picker] /home/roboxo/IntellijFlutter/Laysen Technologies/BitBucket/bluway/build/image_picker/intermediates/library_manifest/debug/AndroidManifest.xml:17:17-67
activity#com.google.android.gms.common.api.GoogleApiActivity
ADDED from [com.google.android.gms:play-services-base:17.0.0] /home/roboxo/.gradle/caches/transforms-2/files-2.1/5ac9ad6f13ea0190a3570ea7a43d9f59/play-services-base-17.0.0/AndroidManifest.xml:23:9-26:75
	android:exported
		ADDED from [com.google.android.gms:play-services-base:17.0.0] /home/roboxo/.gradle/caches/transforms-2/files-2.1/5ac9ad6f13ea0190a3570ea7a43d9f59/play-services-base-17.0.0/AndroidManifest.xml:25:13-37
	android:theme
		ADDED from [com.google.android.gms:play-services-base:17.0.0] /home/roboxo/.gradle/caches/transforms-2/files-2.1/5ac9ad6f13ea0190a3570ea7a43d9f59/play-services-base-17.0.0/AndroidManifest.xml:26:13-72
	android:name
		ADDED from [com.google.android.gms:play-services-base:17.0.0] /home/roboxo/.gradle/caches/transforms-2/files-2.1/5ac9ad6f13ea0190a3570ea7a43d9f59/play-services-base-17.0.0/AndroidManifest.xml:24:13-79
meta-data#com.google.android.gms.version
ADDED from [com.google.android.gms:play-services-basement:17.0.0] /home/roboxo/.gradle/caches/transforms-2/files-2.1/5e58f847ce792df52eb6e871bfbdee93/jetified-play-services-basement-17.0.0/AndroidManifest.xml:23:9-25:69
	android:value
		ADDED from [com.google.android.gms:play-services-basement:17.0.0] /home/roboxo/.gradle/caches/transforms-2/files-2.1/5e58f847ce792df52eb6e871bfbdee93/jetified-play-services-basement-17.0.0/AndroidManifest.xml:25:13-66
	android:name
		ADDED from [com.google.android.gms:play-services-basement:17.0.0] /home/roboxo/.gradle/caches/transforms-2/files-2.1/5e58f847ce792df52eb6e871bfbdee93/jetified-play-services-basement-17.0.0/AndroidManifest.xml:24:13-58
